<?xml version="1.0" encoding="UTF-8"?>
<svg width="24px" height="24px" viewBox="0 0 24 24" version="1.1" xmlns="http://www.w3.org/2000/svg" xmlns:xlink="http://www.w3.org/1999/xlink">
    <!-- Generator: Sketch 62 (91390) - https://sketch.com -->
    <title>Icons/checkmark</title>
    <desc>Created with Sketch.</desc>
    <g id="Icons/checkmark" stroke="none" stroke-width="1" fill="none" fill-rule="evenodd">
        <g id="icons8-checkmark" transform="translate(5.000000, 7.000000)" fill="#151515">
            <polygon id="Path" points="12.292969 0.2929688 5 7.585938 1.7070312 4.292969 0.2929688 5.707031 5 10.414062 13.707031 1.7070312"></polygon>
        </g>
    </g>
</svg>