<?xml version="1.0" encoding="utf-8"?>
<!-- Generator: Adobe Illustrator 26.0.1, SVG Export Plug-In . SVG Version: 6.00 Build 0)  -->
<svg version="1.1" id="Livello_1" xmlns="http://www.w3.org/2000/svg" xmlns:xlink="http://www.w3.org/1999/xlink" x="0px" y="0px"
	 viewBox="0 0 48 48" style="enable-background:new 0 0 48 48;" xml:space="preserve">
<style type="text/css">
	.st0{fill:#FFFFFF;}
</style>
<path class="st0" d="M27.1,34.6c-0.3-0.3-0.5-0.6-0.5-1c0-0.4,0.1-0.7,0.5-1l7.2-7.3H9.6c-0.4,0-0.8-0.1-1.1-0.4
	c-0.3-0.3-0.4-0.6-0.4-1c0-0.4,0.1-0.7,0.4-1c0.3-0.3,0.6-0.4,1.1-0.4h24.7L27,15.1c-0.3-0.3-0.4-0.6-0.4-1s0.2-0.7,0.5-1
	c0.3-0.3,0.6-0.5,1-0.5c0.4,0,0.7,0.1,1.1,0.4l9.6,9.5c0.2,0.2,0.3,0.4,0.4,0.6c0.1,0.2,0.2,0.4,0.2,0.7c0,0.2,0,0.4-0.2,0.6
	c-0.1,0.2-0.2,0.4-0.4,0.6l-9.6,9.6c-0.3,0.3-0.6,0.4-1,0.4C27.8,35.1,27.4,34.9,27.1,34.6z"/>
</svg>
